DATA_622_Project_1
…
# occupation/education profile feature
df_preprocessed <- df_preprocessed %>%
  mutate(Occupation_Education = paste(Occupation, Education, sep = "_"))

df_preprocessed %>%
  count(Occupation_Education, sort = TRUE) %>%
  mutate(Pct = round((n / sum(n)) * 100, 1))

# A tibble: 48 × 3
   Occupation_Education       n   Pct
   <chr>                  <int> <dbl>
 1 management_tertiary     7801  17.3
 2 blue-collar_secondary   5371  11.9
 3 technician_secondary    5229  11.6
 4 admin._secondary        4219   9.3
 5 blue-collar_primary     3758   8.3
 6 services_secondary      3457   7.6
 7 technician_tertiary     1968   4.4
 8 management_secondary    1121   2.5
 9 retired_secondary        984   2.2
10 self-employed_tertiary   833   1.8
# ℹ 38 more rows
…
